{
    "content": [
        {
            "一般附注": [
                "21世纪高等院校计算机系列教材"
            ],
            "storages": [
                {
                    "索书号": "TP311.5/C161 ",
                    "密集架号": "0397952 ",
                    "条码号": "A0230725",
                    "年卷期": " ",
                    "校区-馆藏地": "总馆—密集库3   ",
                    "书刊状态": "可借"
                },
                {
                    "索书号": "TP311.5/C161 ",
                    "密集架号": "0397950 ",
                    "条码号": "A0230726",
                    "年卷期": " ",
                    "校区-馆藏地": "总馆—密集库3   ",
                    "书刊状态": "可借"
                },
                {
                    "索书号": "TP311.5/C161 ",
                    "密集架号": "0397953 ",
                    "条码号": "A0230727",
                    "年卷期": " ",
                    "校区-馆藏地": "总馆—密集库3   ",
                    "书刊状态": "可借"
                },
                {
                    "索书号": "TP311.5/C161 ",
                    "密集架号": "0397949 ",
                    "条码号": "A0230728",
                    "年卷期": " ",
                    "校区-馆藏地": "总馆—密集库3   ",
                    "书刊状态": "可借"
                },
                {
                    "索书号": "TP311.5/C161 ",
                    "密集架号": "0397951 ",
                    "条码号": "A0230724",
                    "年卷期": " ",
                    "校区-馆藏地": "总馆—密集库3   ",
                    "书刊状态": "可借"
                }
            ],
            "出版发行项": [
                "北京:中国水利水电出版社,2004"
            ],
            "个人责任者": [
                "曹哲 主编"
            ],
            "ISBN及定价": [
                "7-5084-1555-8/CNY24.00"
            ],
            "载体形态项": [
                "255页;26cm"
            ],
            "refresh": 1515336816.8811147,
            "题名/责任者": [
                "软件工程/曹哲主编"
            ],
            "score": 7.5,
            "提要文摘附注": [
                "本书主要内容包括:概述,软件项目管理,计算机系统工程,需求分析,面向数据流的分析方法,面向数据的分析设计方法,面向数据的设计方法,面向对象的设计方法,人机界面设计,程序设计语言与编码,软件测试,软件测试、软件维护、软件配置管理以及软件开发新技术简介等。"
            ],
            "marc": "0000097261",
            "学科主题": [
                "软件工程-高等学校-教材"
            ],
            "中图法分类号": [
                "TP311.5"
            ],
            "_id": {
                "timestamp": 1515336816,
                "machineIdentifier": 2918358,
                "processIdentifier": 7024,
                "counter": 8140950,
                "time": 1515336816000,
                "date": 1515336816000,
                "timeSecond": 1515336816
            }
        },
        {
            "storages": [
                {
                    "索书号": "TP311.5/Y110 ",
                    "密集架号": "0360642 ",
                    "条码号": "A0324160",
                    "年卷期": " ",
                    "校区-馆藏地": "总馆—密集库3   ",
                    "书刊状态": "可借"
                },
                {
                    "索书号": "TP311.5/Y110 ",
                    "密集架号": "0360644 ",
                    "条码号": "A0324161",
                    "年卷期": " ",
                    "校区-馆藏地": "总馆—密集库3   ",
                    "书刊状态": "可借"
                },
                {
                    "索书号": "TP311.5/Y110 ",
                    "密集架号": "0360640 ",
                    "条码号": "A0324162",
                    "年卷期": " ",
                    "校区-馆藏地": "总馆—密集库3   ",
                    "书刊状态": "可借"
                },
                {
                    "索书号": "TP311.5/Y110 ",
                    "密集架号": "0360643 ",
                    "条码号": "A0324163",
                    "年卷期": " ",
                    "校区-馆藏地": "总馆—密集库3   ",
                    "书刊状态": "可借"
                },
                {
                    "索书号": "TP311.5/Y110 ",
                    "密集架号": "0360639 ",
                    "条码号": "A0369656",
                    "年卷期": " ",
                    "校区-馆藏地": "总馆—密集库3   ",
                    "书刊状态": "可借"
                },
                {
                    "索书号": "TP311.5/Y110 ",
                    "密集架号": "0360638 ",
                    "条码号": "A0369672",
                    "年卷期": " ",
                    "校区-馆藏地": "总馆—密集库3   ",
                    "书刊状态": "可借"
                },
                {
                    "索书号": "TP311.5/Y110 ",
                    "密集架号": "0360641 ",
                    "条码号": "A0324159",
                    "年卷期": " ",
                    "校区-馆藏地": "总馆—密集库3   ",
                    "书刊状态": "可借"
                }
            ],
            "出版发行项": [
                "北京:中国水利水电出版社,2005"
            ],
            "个人责任者": [
                "闫菲 主编"
            ],
            "ISBN及定价": [
                "7-5084-3032-8/CNY22.00"
            ],
            "载体形态项": [
                "222页:图;26cm"
            ],
            "refresh": 1515336846.9829195,
            "丛编项": [
                "21世纪高职高专新概念教材"
            ],
            "题名/责任者": [
                "软件工程/闫菲主编"
            ],
            "score": 7.5,
            "提要文摘附注": [
                "本书共14章,分别介绍了软件危机与软件工程、软件生命周期及软件开发模型、计算机系统工程、总体设计等内容。"
            ],
            "marc": "0000123634",
            "学科主题": [
                "软件工程-高等教育-教材"
            ],
            "版本说明": [
                "2版"
            ],
            "中图法分类号": [
                "TP311.5"
            ],
            "_id": {
                "timestamp": 1515336846,
                "machineIdentifier": 2918358,
                "processIdentifier": 7024,
                "counter": 8167323,
                "time": 1515336846000,
                "date": 1515336846000,
                "timeSecond": 1515336846
            }
        },
        {
            "一般附注": [
                "高等学校教材 计算机科学与技术"
            ],
            "storages": [
                {
                    "索书号": "TP311.5/Y430 ",
                    "密集架号": "0361449 ",
                    "条码号": "A0402843",
                    "年卷期": " ",
                    "校区-馆藏地": "总馆—密集库3   ",
                    "书刊状态": "可借"
                },
                {
                    "索书号": "TP311.5/Y430 ",
                    "密集架号": " ",
                    "条码号": "A0402798",
                    "年卷期": " ",
                    "校区-馆藏地": "总馆—二楼自然科学图书借阅室Ⅱ   ",
                    "书刊状态": "借出-应还日期：2014-09-21"
                },
                {
                    "索书号": "TP311.5/Y430 ",
                    "密集架号": " ",
                    "条码号": "A0402842",
                    "年卷期": " ",
                    "校区-馆藏地": "总馆—二楼自然科学图书借阅室Ⅱ   ",
                    "书刊状态": "借出-应还日期：2014-09-21"
                },
                {
                    "索书号": "TP311.5/Y430 ",
                    "密集架号": "0361450 ",
                    "条码号": "A0402799",
                    "年卷期": " ",
                    "校区-馆藏地": "总馆—密集库3   ",
                    "书刊状态": "可借"
                }
            ],
            "出版发行项": [
                "北京:清华大学出版社,2006"
            ],
            "个人责任者": [
                "叶俊民 编著"
            ],
            "ISBN及定价": [
                "7-302-12906-1/CNY29.00"
            ],
            "载体形态项": [
                "13,361页;26cm"
            ],
            "refresh": 1515336872.117611,
            "题名/责任者": [
                "软件工程/叶俊民编著"
            ],
            "score": 7.5,
            "提要文摘附注": [
                "本书共12章。介绍了软件工程的背景和基础知识、软件项目管理的方法和技术;讨论了软件分析、设计技术;着重介绍了人机交互的设计;讨论了软件构件的设计技术;研究了面向的概念和分析、设计方法;介绍了软件测试和维护的基础知识。"
            ],
            "marc": "0000145903",
            "学科主题": [
                "软件工程",
                "软件工程-高等学校-教材"
            ],
            "中图法分类号": [
                "TP311.5"
            ],
            "_id": {
                "timestamp": 1515336872,
                "machineIdentifier": 2918358,
                "processIdentifier": 7024,
                "counter": 8189592,
                "time": 1515336872000,
                "date": 1515336872000,
                "timeSecond": 1515336872
            }
        },
        {
            "一般附注": [
                "高等学校计算机科学与技术教材 国家自然科学基金(70471091)资助 高等学校博士点专项科研基金(20030561024)资助"
            ],
            "storages": [
                {
                    "索书号": "TP311.5/W035 ",
                    "密集架号": "0372654 ",
                    "条码号": "A0452211",
                    "年卷期": " ",
                    "校区-馆藏地": "总馆—密集库3   ",
                    "书刊状态": "可借"
                },
                {
                    "索书号": "TP311.5/W035 ",
                    "密集架号": " ",
                    "条码号": "A0452212",
                    "年卷期": " ",
                    "校区-馆藏地": "总馆—二楼自然科学图书借阅室Ⅱ   ",
                    "书刊状态": "借出-应还日期：2014-09-21"
                },
                {
                    "索书号": "TP311.5/W035 ",
                    "密集架号": " ",
                    "条码号": "A0452213",
                    "年卷期": " ",
                    "校区-馆藏地": "总馆—二楼自然科学图书借阅室Ⅱ   ",
                    "书刊状态": "借出-应还日期：2014-09-21"
                },
                {
                    "索书号": "TP311.5/W035 ",
                    "密集架号": " ",
                    "条码号": "A0452214",
                    "年卷期": " ",
                    "校区-馆藏地": "总馆—二楼自然科学图书借阅室Ⅱ   ",
                    "书刊状态": "借出-应还日期：2014-09-21"
                },
                {
                    "索书号": "TP311.5/W035 ",
                    "密集架号": "0372653 ",
                    "条码号": "A0452210",
                    "年卷期": " ",
                    "校区-馆藏地": "总馆—密集库3   ",
                    "书刊状态": "可借"
                }
            ],
            "出版发行项": [
                "北京:清华大学出版社,2006"
            ],
            "个人责任者": [
                "万江平 编著"
            ],
            "ISBN及定价": [
                "7-81082-733-2/CNY36.00"
            ],
            "载体形态项": [
                "377页;26cm"
            ],
            "refresh": 1515336884.5068865,
            "题名/责任者": [
                "软件工程/万江平编著"
            ],
            "score": 7.5,
            "提要文摘附注": [
                "本书运用了前沿的知识科学和系统科学来处理软件和软件工程的复杂性。使用了IEEE的软件工程知识体系、著名的软件过程成熟度模型和NASA的软件开发实践经验。针对中国的实际情况和软件产业的发展,突出了软件质量管理和软件过程改进,采用了面向对象技术、项目管理等软件来解决中国软件工程教育有培训的实际问题。"
            ],
            "marc": "0000157072",
            "学科主题": [
                "软件工程-高等学校-教材"
            ],
            "中图法分类号": [
                "TP311.5"
            ],
            "_id": {
                "timestamp": 1515336884,
                "machineIdentifier": 2918358,
                "processIdentifier": 7024,
                "counter": 8200761,
                "time": 1515336884000,
                "date": 1515336884000,
                "timeSecond": 1515336884
            }
        },
        {
            "一般附注": [
                "高等学校教材 软件工程"
            ],
            "storages": [
                {
                    "索书号": "TP311.5/L144 ",
                    "密集架号": " ",
                    "条码号": "A0531359",
                    "年卷期": " ",
                    "校区-馆藏地": "总馆—二楼自然科学图书借阅室Ⅱ   ",
                    "书刊状态": "借出-应还日期：2014-09-21"
                },
                {
                    "索书号": "TP311.5/L144 ",
                    "密集架号": " ",
                    "条码号": "A0531361",
                    "年卷期": " ",
                    "校区-馆藏地": "总馆—二楼自然科学图书借阅室Ⅱ   ",
                    "书刊状态": "借出-应还日期：2014-09-21"
                },
                {
                    "索书号": "TP311.5/L144 ",
                    "密集架号": "0372702 ",
                    "条码号": "A0531360",
                    "年卷期": " ",
                    "校区-馆藏地": "总馆—密集库3   ",
                    "书刊状态": "可借"
                }
            ],
            "出版发行项": [
                "北京:清华大学出版社,2008"
            ],
            "个人责任者": [
                "李代平 编著"
            ],
            "ISBN及定价": [
                "978-7-302-15731-1/CNY46.00"
            ],
            "载体形态项": [
                "19,523页;26cm"
            ],
            "refresh": 1515336944.6978767,
            "题名/责任者": [
                "软件工程/李代平等编著"
            ],
            "score": 7.5,
            "提要文摘附注": [
                "本书分为基础理论、结构化方法、面向对象方法与实现、质量与工程管理四部分。每一章都有相应的例子和解释。"
            ],
            "marc": "0000208460",
            "学科主题": [
                "软件工程",
                "软件工程-高等学校-教材"
            ],
            "版本说明": [
                "2版"
            ],
            "中图法分类号": [
                "TP311.5"
            ],
            "_id": {
                "timestamp": 1515336944,
                "machineIdentifier": 2918358,
                "processIdentifier": 7024,
                "counter": 8252149,
                "time": 1515336944000,
                "date": 1515336944000,
                "timeSecond": 1515336944
            }
        },
        {
            "一般附注": [
                "21世纪高职高专系列教材"
            ],
            "storages": [
                {
                    "索书号": "TP311.5/Z811 ",
                    "密集架号": "0376623 ",
                    "条码号": "A0654922",
                    "年卷期": " ",
                    "校区-馆藏地": "总馆—密集库3   ",
                    "书刊状态": "可借"
                }
            ],
            "出版发行项": [
                "北京:机械工业出版社,2001"
            ],
            "个人责任者": [
                "周志刚 主编"
            ],
            "ISBN及定价": [
                "7-111-08408-X/CNY18.00"
            ],
            "载体形态项": [
                "169页;26cm"
            ],
            "refresh": 1515337043.7695458,
            "题名/责任者": [
                "软件工程/周志刚主编"
            ],
            "score": 7.5,
            "提要文摘附注": [
                "全书共分九章,内容包括绪论、软件定义及计划、软件需求分析、软件设计、软件编码、软件测试、软件运行及维护、软件项目管理技术、面向对象软件工程等。"
            ],
            "marc": "0000270135",
            "学科主题": [
                "软件工程",
                "软件工程-高等教育-教材"
            ],
            "中图法分类号": [
                "TP311.5"
            ],
            "_id": {
                "timestamp": 1515337043,
                "machineIdentifier": 2918358,
                "processIdentifier": 7024,
                "counter": 8313824,
                "time": 1515337043000,
                "date": 1515337043000,
                "timeSecond": 1515337043
            }
        },
        {
            "一般附注": [
                "普通高等教育“十一五”国家级规划教材"
            ],
            "storages": [
                {
                    "索书号": "TP311.5/X292.1 ",
                    "密集架号": "0372675 ",
                    "条码号": "A0693603",
                    "年卷期": " ",
                    "校区-馆藏地": "总馆—密集库3   ",
                    "书刊状态": "可借"
                },
                {
                    "索书号": "TP311.5/X292.1 ",
                    "密集架号": "0372673 ",
                    "条码号": "A0693604",
                    "年卷期": " ",
                    "校区-馆藏地": "总馆—密集库3   ",
                    "书刊状态": "可借"
                },
                {
                    "索书号": "TP311.5/X292.1 ",
                    "密集架号": "0372674 ",
                    "条码号": "A0693602",
                    "年卷期": " ",
                    "校区-馆藏地": "总馆—密集库3   ",
                    "书刊状态": "可借"
                }
            ],
            "出版发行项": [
                "北京:国防工业出版社,2009"
            ],
            "个人责任者": [
                "肖汉 主编"
            ],
            "ISBN及定价": [
                "978-7-118-06001-0/CNY39.00"
            ],
            "载体形态项": [
                "16,428页;26cm"
            ],
            "refresh": 1515337030.0243692,
            "题名/责任者": [
                "软件工程/肖汉主编"
            ],
            "score": 7.5,
            "提要文摘附注": [
                "本书第1篇讲述软件工程与软件过程;第2篇讲述结构化分析、设计与实现;第3篇讲述面向对象的概念、模型、分析、设计与实现;第4篇讲述软件项目的计划、组织和控制;第5篇讲述软件重用,软件工程环境,设计模式,敏捷开发。"
            ],
            "marc": "0000262985",
            "学科主题": [
                "软件工程",
                "软件工程-高等教育-教材"
            ],
            "中图法分类号": [
                "TP311.5"
            ],
            "_id": {
                "timestamp": 1515337030,
                "machineIdentifier": 2918358,
                "processIdentifier": 7024,
                "counter": 8306674,
                "time": 1515337030000,
                "date": 1515337030000,
                "timeSecond": 1515337030
            }
        },
        {
            "一般附注": [
                "21世纪大学计算机系列教材"
            ],
            "storages": [
                {
                    "索书号": "TP311.5/Z011.1 ",
                    "密集架号": "0361681 ",
                    "条码号": "A0692967",
                    "年卷期": " ",
                    "校区-馆藏地": "总馆—密集库3   ",
                    "书刊状态": "可借"
                },
                {
                    "索书号": "TP311.5/Z011.1 ",
                    "密集架号": "0361680 ",
                    "条码号": "A0692968",
                    "年卷期": " ",
                    "校区-馆藏地": "总馆—密集库3   ",
                    "书刊状态": "可借"
                },
                {
                    "索书号": "TP311.5/Z011.1 ",
                    "密集架号": "0361679 ",
                    "条码号": "A0692966",
                    "年卷期": " ",
                    "校区-馆藏地": "总馆—密集库3   ",
                    "书刊状态": "可借"
                }
            ],
            "出版发行项": [
                "北京:科学出版社,2009"
            ],
            "个人责任者": [
                "臧铁刚 主编"
            ],
            "ISBN及定价": [
                "978-7-03-024293-8/CNY28.00"
            ],
            "载体形态项": [
                "254页;26cm"
            ],
            "refresh": 1515337031.7918413,
            "题名/责任者": [
                "软件工程/臧铁刚主编"
            ],
            "score": 7.5,
            "提要文摘附注": [
                "本书共分10章,内容涵盖了软件工程概述、软件系统可行性研究与需求分析、软件设计技术、编码及程序设计语言、软件的技术量度及质量保障、软件测试技术、软件维护技术、软件项目管理以及新型的软件工程技术等。"
            ],
            "marc": "0000263980",
            "学科主题": [
                "软件工程",
                "软件工程-高等学校-教材"
            ],
            "中图法分类号": [
                "TP311.5"
            ],
            "_id": {
                "timestamp": 1515337031,
                "machineIdentifier": 2918358,
                "processIdentifier": 7024,
                "counter": 8307669,
                "time": 1515337031000,
                "date": 1515337031000,
                "timeSecond": 1515337031
            }
        },
        {
            "一般附注": [
                "高等职业教育特色精品课程规划教材 高等职业教育课程改革项目研究成果"
            ],
            "storages": [
                {
                    "索书号": "TP311.5/Z114 ",
                    "密集架号": "0361703 ",
                    "条码号": "A0754345",
                    "年卷期": " ",
                    "校区-馆藏地": "总馆—密集库3   ",
                    "书刊状态": "可借"
                },
                {
                    "索书号": "TP311.5/Z114 ",
                    "密集架号": "0361705 ",
                    "条码号": "A0754346",
                    "年卷期": " ",
                    "校区-馆藏地": "总馆—密集库3   ",
                    "书刊状态": "可借"
                },
                {
                    "索书号": "TP311.5/Z114 ",
                    "密集架号": "0361704 ",
                    "条码号": "A0754344",
                    "年卷期": " ",
                    "校区-馆藏地": "总馆—密集库3   ",
                    "书刊状态": "可借"
                }
            ],
            "出版发行项": [
                "北京:北京理工大学出版社,2009"
            ],
            "个人责任者": [
                "张洪民 主编"
            ],
            "ISBN及定价": [
                "978-7-5640-2490-1/CNY23.00"
            ],
            "载体形态项": [
                "176页;26cm"
            ],
            "refresh": 1515337053.3035753,
            "题名/责任者": [
                "软件工程/张洪民主编"
            ],
            "score": 7.5,
            "提要文摘附注": [
                "本书分为十二章,内容包括软件工程概述、软件建模语言、软件计划、需求分析、概要设计、详细设计、编码、软件测试、软件维护、软件工程标准化和软件文档等。"
            ],
            "marc": "0000275114",
            "学科主题": [
                "软件工程",
                "软件工程-高等教育-教材"
            ],
            "中图法分类号": [
                "TP311.5"
            ],
            "_id": {
                "timestamp": 1515337053,
                "machineIdentifier": 2918358,
                "processIdentifier": 7024,
                "counter": 8318803,
                "time": 1515337053000,
                "date": 1515337053000,
                "timeSecond": 1515337053
            }
        },
        {
            "storages": [
                {
                    "索书号": "TP311.5/Z111.4 ",
                    "密集架号": "0361309 ",
                    "条码号": "A0778835",
                    "年卷期": " ",
                    "校区-馆藏地": "总馆—密集库3   ",
                    "书刊状态": "可借"
                },
                {
                    "索书号": "TP311.5/Z111.4 ",
                    "密集架号": "0361311 ",
                    "条码号": "A0778836",
                    "年卷期": " ",
                    "校区-馆藏地": "总馆—密集库3   ",
                    "书刊状态": "可借"
                },
                {
                    "索书号": "TP311.5/Z111.4 ",
                    "密集架号": "0361310 ",
                    "条码号": "A0778834",
                    "年卷期": " ",
                    "校区-馆藏地": "总馆—密集库3   ",
                    "书刊状态": "可借"
                }
            ],
            "出版发行项": [
                "北京:清华大学出版社,2009"
            ],
            "个人责任者": [
                "张海藩 编著"
            ],
            "ISBN及定价": [
                "978-7-302-19812-3/CNY29.50"
            ],
            "载体形态项": [
                "12,334页;26cm"
            ],
            "refresh": 1515337043.3194294,
            "题名/责任者": [
                "软件工程/张海藩编著"
            ],
            "score": 7.5,
            "提要文摘附注": [
                "本书系统讲述了软件工程的概念、原理和典型的方法学,并介绍了软件项目的管理技术。"
            ],
            "marc": "0000269911",
            "学科主题": [
                "软件工程"
            ],
            "中图法分类号": [
                "TP311.5"
            ],
            "_id": {
                "timestamp": 1515337043,
                "machineIdentifier": 2918358,
                "processIdentifier": 7024,
                "counter": 8313600,
                "time": 1515337043000,
                "date": 1515337043000,
                "timeSecond": 1515337043
            }
        }
    ],
    "totalPages": 22,
    "totalElements": 216,
    "last": false,
    "size": 10,
    "number": 2,
    "sort": null,
    "first": false,
    "numberOfElements": 10
}