{
    "content": [
        {
            "并列正题名": [
                "软件工程"
            ],
            "storages": [
                {
                    "索书号": "TP311.5/S006.5 ",
                    "密集架号": " ",
                    "条码号": "A0948933",
                    "年卷期": " ",
                    "校区-馆藏地": "总馆—二楼自然科学图书借阅室Ⅱ   ",
                    "书刊状态": "可借"
                }
            ],
            "出版发行项": [
                "北京:机械工业出版社,2011"
            ],
            "个人责任者": [
                "萨默维尔 (英) (Sommerville, Lan) 著"
            ],
            "ISBN及定价": [
                "978-7-111-34825-2/CNY99.00"
            ],
            "载体形态项": [
                "XIV, 773页:图;25cm"
            ],
            "责任者附注": [
                "Sommerville规范汉译姓: 萨默维尔"
            ],
            "refresh": 1515337171.1106942,
            "丛编项": [
                "经典原版书库"
            ],
            "原作版本附注": [
                "据原书第9版英文版影印"
            ],
            "题名/责任者": [
                "Software engineering/(英) Ian Sommerville著"
            ],
            "score": 11,
            "出版发行附注": [
                "由Pearson Education Asia Ltd.授权"
            ],
            "提要文摘附注": [
                "本书是系统介绍软件工程理论的经典教材, 全书共四个部分, 完整讨论了软件工程各个阶段的内容。涵盖了对所有开发过程都很基础的重要主题, 包括软件工程理论与实践的最新进展。"
            ],
            "marc": "0000338637",
            "学科主题": [
                "软件工程-ruan jian gong cheng-英文"
            ],
            "版本说明": [
                "英文版"
            ],
            "中图法分类号": [
                "TP311.5"
            ],
            "_id": {
                "timestamp": 1515337171,
                "machineIdentifier": 2918358,
                "processIdentifier": 7024,
                "counter": 8382326,
                "time": 1515337171000,
                "date": 1515337171000,
                "timeSecond": 1515337171
            }
        },
        {
            "并列正题名": [
                "软件工程"
            ],
            "storages": [
                {
                    "索书号": "TP311.5/S006.7 ",
                    "密集架号": " ",
                    "条码号": "A1393851",
                    "年卷期": " ",
                    "校区-馆藏地": "总馆—二楼自然科学图书借阅室Ⅱ   ",
                    "书刊状态": "可借"
                }
            ],
            "出版发行项": [
                "北京:机械工业出版社,2017.10"
            ],
            "个人责任者": [
                "萨默维尔 (Sommerville, Ian) 著"
            ],
            "ISBN及定价": [
                "978-7-111-58096-6/CNY129.00"
            ],
            "载体形态项": [
                "xvi, 761页:图;24cm"
            ],
            "责任者附注": [
                "伊恩·萨默维尔, 英国著名软件工程专家。"
            ],
            "refresh": 1515337574.135963,
            "丛编项": [
                "经典原版书库"
            ],
            "原作版本附注": [
                "据原书第10版影印"
            ],
            "题名/责任者": [
                "Software engineering/Ian Sommerville"
            ],
            "score": 11,
            "出版发行附注": [
                "由Pearson Education Inc.授权出版"
            ],
            "提要文摘附注": [
                "本书是软件工程领域的经典教材, 自1982年第1版出版至今, 伴随着软件工程学科的发展不断更新, 影响了一代又一代的软件工程人才, 对学科建设也产生了积极影响。全书共四个部分, 完整讨论了软件工程各个阶段的内容, 是软件工程相关专业本科生和研究生的教材, 也是软件工程师必备的参考书籍。"
            ],
            "marc": "0000582956",
            "学科主题": [
                "软件工程-英文"
            ],
            "版本说明": [
                "影印版"
            ],
            "中图法分类号": [
                "TP311.5"
            ],
            "_id": {
                "timestamp": 1515337574,
                "machineIdentifier": 2918358,
                "processIdentifier": 7024,
                "counter": 8626645,
                "time": 1515337574000,
                "date": 1515337574000,
                "timeSecond": 1515337574
            }
        },
        {
            "storages": [
                {
                    "索书号": "TP31/P97 ",
                    "密集架号": "0039157 ",
                    "条码号": "A0018375",
                    "年卷期": " ",
                    "校区-馆藏地": "总馆—一楼密集库   ",
                    "书刊状态": "可借"
                }
            ],
            "出版发行项": [
                "北京:国防工业出版社,1988.7"
            ],
            "score": 7.5,
            "个人责任者": [
                "杨芙清"
            ],
            "ISBN及定价": [
                "7-118-00050-7 平/RMB5.60"
            ],
            "marc": "0000028582",
            "载体形态项": [
                "270页;26cm"
            ],
            "中图法分类号": [
                "TP31-43"
            ],
            "refresh": 1515297899.6573427,
            "_id": {
                "timestamp": 1515297899,
                "machineIdentifier": 2918358,
                "processIdentifier": 15316,
                "counter": 1619854,
                "time": 1515297899000,
                "date": 1515297899000,
                "timeSecond": 1515297899
            },
            "题名/责任者": [
                "软件工程/杨芙清校"
            ]
        },
        {
            "storages": [
                {
                    "索书号": "TP311.5/W222 ",
                    "密集架号": "0045608 ",
                    "条码号": "A0128150",
                    "年卷期": " ",
                    "校区-馆藏地": "总馆—一楼密集库   ",
                    "书刊状态": "可借"
                },
                {
                    "索书号": "TP311.5/W222 ",
                    "密集架号": "0045609 ",
                    "条码号": "A0128151",
                    "年卷期": " ",
                    "校区-馆藏地": "总馆—一楼密集库   ",
                    "书刊状态": "可借"
                },
                {
                    "索书号": "TP311.5/W222 ",
                    "密集架号": "0399312 ",
                    "条码号": "A0128149",
                    "年卷期": " ",
                    "校区-馆藏地": "总馆—密集库3   ",
                    "书刊状态": "可借"
                }
            ],
            "出版发行项": [
                "沈阳:东北大学出版社,2001.3"
            ],
            "score": 7.5,
            "个人责任者": [
                "王家华 编著"
            ],
            "ISBN及定价": [
                "7-81054-492-6 平装/RMB30.00"
            ],
            "marc": "0000059276",
            "载体形态项": [
                "305页;26cm"
            ],
            "学科主题": [
                "软件工程-高等学校-教材"
            ],
            "中图法分类号": [
                "TP311.5"
            ],
            "refresh": 1515297932.0552163,
            "_id": {
                "timestamp": 1515297932,
                "machineIdentifier": 2918358,
                "processIdentifier": 15316,
                "counter": 1650548,
                "time": 1515297932000,
                "date": 1515297932000,
                "timeSecond": 1515297932
            },
            "题名/责任者": [
                "软件工程/王家华编著"
            ]
        },
        {
            "一般附注": [
                "高等学校21世纪教材"
            ],
            "storages": [
                {
                    "索书号": "TP311.5/Z111 ",
                    "密集架号": "0045612 ",
                    "条码号": "A0169107",
                    "年卷期": " ",
                    "校区-馆藏地": "总馆—一楼密集库   ",
                    "书刊状态": "可借"
                },
                {
                    "索书号": "TP311.5/Z111 ",
                    "密集架号": "0170074 ",
                    "条码号": "A0169108",
                    "年卷期": " ",
                    "校区-馆藏地": "总馆—一楼密集库   ",
                    "书刊状态": "可借"
                },
                {
                    "索书号": "TP311.5/Z111 ",
                    "密集架号": "0045611 ",
                    "条码号": "A0169106",
                    "年卷期": " ",
                    "校区-馆藏地": "总馆—一楼密集库   ",
                    "书刊状态": "可借"
                }
            ],
            "出版发行项": [
                "北京:人民邮电出版社,2002"
            ],
            "个人责任者": [
                "张海藩 编著"
            ],
            "ISBN及定价": [
                "7-115-09378-4/CNY29.00"
            ],
            "载体形态项": [
                "10,338页;26cm"
            ],
            "refresh": 1515297949.3165715,
            "题名/责任者": [
                "软件工程/张海藩编著"
            ],
            "score": 7.5,
            "marc": "0000075489",
            "学科主题": [
                "软件工程",
                "软件工程-高等学校-教材"
            ],
            "中图法分类号": [
                "TP311.5"
            ],
            "_id": {
                "timestamp": 1515297949,
                "machineIdentifier": 2918358,
                "processIdentifier": 15316,
                "counter": 1666761,
                "time": 1515297949000,
                "date": 1515297949000,
                "timeSecond": 1515297949
            }
        },
        {
            "storages": [
                {
                    "索书号": "TP311.5-43/X789 ",
                    "密集架号": " ",
                    "条码号": "A0158053",
                    "年卷期": " ",
                    "校区-馆藏地": "总馆—二楼自然科学图书借阅室Ⅱ   ",
                    "书刊状态": "借出-应还日期：2014-09-21"
                },
                {
                    "索书号": "TP311.5-43/X789 ",
                    "密集架号": " ",
                    "条码号": "A0158055",
                    "年卷期": " ",
                    "校区-馆藏地": "总馆—二楼自然科学图书借阅室Ⅱ   ",
                    "书刊状态": "借出-应还日期：2014-09-21"
                },
                {
                    "索书号": "TP311.5-43/X789 ",
                    "密集架号": "0361743 ",
                    "条码号": "A0158054",
                    "年卷期": " ",
                    "校区-馆藏地": "总馆—密集库3   ",
                    "书刊状态": "可借"
                }
            ],
            "出版发行项": [
                "武汉:华中科技大学出版社,2001.1"
            ],
            "个人责任者": [
                "徐仁佐 主编"
            ],
            "ISBN及定价": [
                "7-5609-2363-1/CNY27.00"
            ],
            "载体形态项": [
                "355页:图;23cm"
            ],
            "使用对象附注": [
                "读者对象:计算机专业本科生、广大软件产业及IT产业从业人员。"
            ],
            "refresh": 1515297947.436498,
            "丛编项": [
                "面向21世纪计算机专业本科系列教材"
            ],
            "题名/责任者": [
                "软件工程/徐仁佐主编"
            ],
            "score": 7.5,
            "提要文摘附注": [
                "本书分软件工程技术与软件工程管理两部分。软件工程技术部分包括软件工程概述,软件需求分析,软件复用,软件测试,软件维护与软件再工程,软件工具与软件开发环境等内容;软件工程管理部分包括软件抽量管理,软件文档与软件工程标准化,软件项目、配置及人员组织管理,软件知识产权保护等内容;最后介绍当前国际上软件工程研究的新方向。"
            ],
            "marc": "0000073743",
            "学科主题": [
                "软件工程-ruan jian gong cheng-高等学校-教材"
            ],
            "书目附注": [
                "有书目(第353～355页)和索引(第351～352页)"
            ],
            "中图法分类号": [
                "TP311.5",
                "TP311.5-43"
            ],
            "_id": {
                "timestamp": 1515297947,
                "machineIdentifier": 2918358,
                "processIdentifier": 15316,
                "counter": 1665015,
                "time": 1515297947000,
                "date": 1515297947000,
                "timeSecond": 1515297947
            }
        },
        {
            "并列正题名": [
                "Software Engineering"
            ],
            "一般附注": [
                "普通高等学校计算机科学与技术专业新编系列教材"
            ],
            "storages": [
                {
                    "索书号": "TP311.5/Z024 ",
                    "密集架号": "0170080 ",
                    "条码号": "A0169597",
                    "年卷期": " ",
                    "校区-馆藏地": "总馆—一楼密集库   ",
                    "书刊状态": "可借"
                },
                {
                    "索书号": "TP311.5/Z024 ",
                    "密集架号": "0170054 ",
                    "条码号": "A0169598",
                    "年卷期": " ",
                    "校区-馆藏地": "总馆—一楼密集库   ",
                    "书刊状态": "可借"
                },
                {
                    "索书号": "TP311.5/Z024 ",
                    "密集架号": "0038723 ",
                    "条码号": "A0199423",
                    "年卷期": " ",
                    "校区-馆藏地": "总馆—一楼密集库   ",
                    "书刊状态": "可借"
                },
                {
                    "索书号": "TP311.5/Z024 ",
                    "密集架号": "0038722 ",
                    "条码号": "A0199424",
                    "年卷期": " ",
                    "校区-馆藏地": "总馆—一楼密集库   ",
                    "书刊状态": "可借"
                },
                {
                    "索书号": "TP311.5/Z024 ",
                    "密集架号": "0038721 ",
                    "条码号": "A0169596",
                    "年卷期": " ",
                    "校区-馆藏地": "总馆—一楼密集库   ",
                    "书刊状态": "可借"
                }
            ],
            "出版发行项": [
                "武汉:武汉理工大学出版社,2003"
            ],
            "个人责任者": [
                "曾建潮 主编"
            ],
            "ISBN及定价": [
                "7-5629-1954-2/CNY25.00"
            ],
            "载体形态项": [
                "284页;23cm"
            ],
            "refresh": 1515297950.3175476,
            "题名/责任者": [
                "软件工程/曾建潮主编"
            ],
            "score": 7.5,
            "提要文摘附注": [
                "本书共12章,包括:概论;可行性分析;总体设计;详细设计;编码实现;面向对象的方法学、面向对象的分析方法和建模技术等。"
            ],
            "marc": "0000076441",
            "学科主题": [
                "软件工程",
                "软件工程-高等学校-教材"
            ],
            "中图法分类号": [
                "TP311.5"
            ],
            "_id": {
                "timestamp": 1515297950,
                "machineIdentifier": 2918358,
                "processIdentifier": 15316,
                "counter": 1667713,
                "time": 1515297950000,
                "date": 1515297950000,
                "timeSecond": 1515297950
            }
        },
        {
            "storages": [
                {
                    "索书号": "TP311.5/L098 ",
                    "密集架号": "0044469 ",
                    "条码号": "A0209015",
                    "年卷期": " ",
                    "校区-馆藏地": "总馆—一楼密集库   ",
                    "书刊状态": "可借"
                },
                {
                    "索书号": "TP311.5/L098 ",
                    "密集架号": "0044470 ",
                    "条码号": "A0209016",
                    "年卷期": " ",
                    "校区-馆藏地": "总馆—一楼密集库   ",
                    "书刊状态": "可借"
                },
                {
                    "索书号": "TP311.5/L098 ",
                    "密集架号": "0044467 ",
                    "条码号": "A0209017",
                    "年卷期": " ",
                    "校区-馆藏地": "总馆—一楼密集库   ",
                    "书刊状态": "可借"
                },
                {
                    "索书号": "TP311.5/L098 ",
                    "密集架号": "0044468 ",
                    "条码号": "A0209018",
                    "年卷期": " ",
                    "校区-馆藏地": "总馆—一楼密集库   ",
                    "书刊状态": "可借"
                },
                {
                    "索书号": "TP311.5/L098 ",
                    "密集架号": "0372613 ",
                    "条码号": "A0209014",
                    "年卷期": " ",
                    "校区-馆藏地": "总馆—密集库3   ",
                    "书刊状态": "可借"
                }
            ],
            "出版发行项": [
                "北京:人民交通出版社,2004"
            ],
            "个人责任者": [
                "冷英男 主编"
            ],
            "ISBN及定价": [
                "7-114-04932-3 平装/CNY23.00"
            ],
            "载体形态项": [
                "216页:图;26cm"
            ],
            "使用对象附注": [
                "高职高专学校学生、编程人员和普通读者。"
            ],
            "refresh": 1515297959.6689723,
            "丛编项": [
                "面向21世纪高职高专计算机专业教材"
            ],
            "题名/责任者": [
                "软件工程/冷英男主编"
            ],
            "score": 7.5,
            "提要文摘附注": [
                "本书系统地介绍了软件工程的基本概念、技术与方法,内容包括:软件开发模型,系统分析,需求分析,软件设计等内容。"
            ],
            "marc": "0000085111",
            "学科主题": [
                "软件工程-高等教育-教材"
            ],
            "书目附注": [
                "有书目 (第216页)"
            ],
            "中图法分类号": [
                "TP311.5"
            ],
            "_id": {
                "timestamp": 1515297959,
                "machineIdentifier": 2918358,
                "processIdentifier": 15316,
                "counter": 1676383,
                "time": 1515297959000,
                "date": 1515297959000,
                "timeSecond": 1515297959
            }
        },
        {
            "一般附注": [
                "21世纪高等学校本科系列教材(15) 计算机科学与技术专业"
            ],
            "storages": [
                {
                    "索书号": "TP311.5/Z762 ",
                    "密集架号": "0045615 ",
                    "条码号": "A0207504",
                    "年卷期": " ",
                    "校区-馆藏地": "总馆—一楼密集库   ",
                    "书刊状态": "可借"
                },
                {
                    "索书号": "TP311.5/Z762 ",
                    "密集架号": "0045185 ",
                    "条码号": "A0207505",
                    "年卷期": " ",
                    "校区-馆藏地": "总馆—一楼密集库   ",
                    "书刊状态": "可借"
                },
                {
                    "索书号": "TP311.5/Z762 ",
                    "密集架号": "0045187 ",
                    "条码号": "A0207506",
                    "年卷期": " ",
                    "校区-馆藏地": "总馆—一楼密集库   ",
                    "书刊状态": "可借"
                },
                {
                    "索书号": "TP311.5/Z762 ",
                    "密集架号": "0045186 ",
                    "条码号": "A0207508",
                    "年卷期": " ",
                    "校区-馆藏地": "总馆—一楼密集库   ",
                    "书刊状态": "可借"
                },
                {
                    "索书号": "TP311.5/Z762 ",
                    "密集架号": "0377278 ",
                    "条码号": "A0207507",
                    "年卷期": " ",
                    "校区-馆藏地": "总馆—密集库3   ",
                    "书刊状态": "可借"
                }
            ],
            "出版发行项": [
                "重庆:重庆大学出版社,2001"
            ],
            "个人责任者": [
                "周枫 编著"
            ],
            "ISBN及定价": [
                "7-5624-2300-8/CNY22.00"
            ],
            "载体形态项": [
                "226页;26cm"
            ],
            "refresh": 1515297960.2084193,
            "题名/责任者": [
                "软件工程/周枫等编著"
            ],
            "score": 7.5,
            "提要文摘附注": [
                "本书共分12章,主要以工程化学的软件开发方法为主导,系统、全面地介绍了这门功课的原理、方法及应用。"
            ],
            "marc": "0000085567",
            "学科主题": [
                "软件工程-高等学校-教材"
            ],
            "中图法分类号": [
                "TP311.5"
            ],
            "_id": {
                "timestamp": 1515297960,
                "machineIdentifier": 2918358,
                "processIdentifier": 15316,
                "counter": 1676839,
                "time": 1515297960000,
                "date": 1515297960000,
                "timeSecond": 1515297960
            }
        },
        {
            "一般附注": [
                "21世纪高等院校计算机系列教材"
            ],
            "storages": [
                {
                    "索书号": "TP311.5/C161 ",
                    "密集架号": "0397952 ",
                    "条码号": "A0230725",
                    "年卷期": " ",
                    "校区-馆藏地": "总馆—密集库3   ",
                    "书刊状态": "可借"
                },
                {
                    "索书号": "TP311.5/C161 ",
                    "密集架号": "0397950 ",
                    "条码号": "A0230726",
                    "年卷期": " ",
                    "校区-馆藏地": "总馆—密集库3   ",
                    "书刊状态": "可借"
                },
                {
                    "索书号": "TP311.5/C161 ",
                    "密集架号": "0397953 ",
                    "条码号": "A0230727",
                    "年卷期": " ",
                    "校区-馆藏地": "总馆—密集库3   ",
                    "书刊状态": "可借"
                },
                {
                    "索书号": "TP311.5/C161 ",
                    "密集架号": "0397949 ",
                    "条码号": "A0230728",
                    "年卷期": " ",
                    "校区-馆藏地": "总馆—密集库3   ",
                    "书刊状态": "可借"
                },
                {
                    "索书号": "TP311.5/C161 ",
                    "密集架号": "0397951 ",
                    "条码号": "A0230724",
                    "年卷期": " ",
                    "校区-馆藏地": "总馆—密集库3   ",
                    "书刊状态": "可借"
                }
            ],
            "出版发行项": [
                "北京:中国水利水电出版社,2004"
            ],
            "个人责任者": [
                "曹哲 主编"
            ],
            "ISBN及定价": [
                "7-5084-1555-8/CNY24.00"
            ],
            "载体形态项": [
                "255页;26cm"
            ],
            "refresh": 1515297973.1072123,
            "题名/责任者": [
                "软件工程/曹哲主编"
            ],
            "score": 7.5,
            "提要文摘附注": [
                "本书主要内容包括:概述,软件项目管理,计算机系统工程,需求分析,面向数据流的分析方法,面向数据的分析设计方法,面向数据的设计方法,面向对象的设计方法,人机界面设计,程序设计语言与编码,软件测试,软件测试、软件维护、软件配置管理以及软件开发新技术简介等。"
            ],
            "marc": "0000097261",
            "学科主题": [
                "软件工程-高等学校-教材"
            ],
            "中图法分类号": [
                "TP311.5"
            ],
            "_id": {
                "timestamp": 1515297973,
                "machineIdentifier": 2918358,
                "processIdentifier": 15316,
                "counter": 1688533,
                "time": 1515297973000,
                "date": 1515297973000,
                "timeSecond": 1515297973
            }
        }
    ],
    "totalPages": 22,
    "totalElements": 216,
    "last": false,
    "size": 10,
    "number": 0,
    "sort": null,
    "first": true,
    "numberOfElements": 10
}